\relax 
\providecommand\hyper@newdestlabel[2]{}
\providecommand\HyperFirstAtBeginDocument{\AtBeginDocument}
\HyperFirstAtBeginDocument{\ifx\hyper@anchor\@undefined
\global\let\oldcontentsline\contentsline
\gdef\contentsline#1#2#3#4{\oldcontentsline{#1}{#2}{#3}}
\global\let\oldnewlabel\newlabel
\gdef\newlabel#1#2{\newlabelxx{#1}#2}
\gdef\newlabelxx#1#2#3#4#5#6{\oldnewlabel{#1}{{#2}{#3}}}
\AtEndDocument{\ifx\hyper@anchor\@undefined
\let\contentsline\oldcontentsline
\let\newlabel\oldnewlabel
\fi}
\fi}
\global\let\hyper@last\relax 
\gdef\HyperFirstAtBeginDocument#1{#1}
\providecommand\HyField@AuxAddToFields[1]{}
\providecommand\HyField@AuxAddToCoFields[2]{}
\@writefile{toc}{\contentsline {section}{Background and Related Work}{\thepage }{section*.3}}
\@writefile{toc}{\contentsline {subsection}{Software-Defined Networks}{\thepage }{section*.4}}
\@writefile{toc}{\contentsline {subsection}{Topological Structures}{\thepage }{section*.5}}
\@writefile{lof}{\contentsline {figure}{\numberline {1}{\ignorespaces Fat Tree of K = 4}}{\thepage }{figure.1}}
\newlabel{fig:figure1}{{1}{\thepage }{Fat Tree of K = 4}{figure.1}{}}
\@writefile{toc}{\contentsline {subsection}{User Research}{\thepage }{section*.6}}
\@writefile{lof}{\contentsline {figure}{\numberline {2}{\ignorespaces Time based Virtualization tool}}{\thepage }{figure.2}}
\newlabel{fig:figure2}{{2}{\thepage }{Time based Virtualization tool}{figure.2}{}}
\@writefile{toc}{\contentsline {section}{Comparative Evaluation of Existing Visualization Tools}{\thepage }{section*.7}}
\@writefile{lof}{\contentsline {figure}{\numberline {3}{\ignorespaces VISUAL tool}}{\thepage }{figure.3}}
\newlabel{fig:figure3}{{3}{\thepage }{VISUAL tool}{figure.3}{}}
\@writefile{lof}{\contentsline {figure}{\numberline {4}{\ignorespaces Gephi tool}}{\thepage }{figure.4}}
\newlabel{fig:figure4}{{4}{\thepage }{Gephi tool}{figure.4}{}}
\@writefile{lof}{\contentsline {figure}{\numberline {5}{\ignorespaces Netsight tool}}{\thepage }{figure.5}}
\newlabel{fig:figure5}{{5}{\thepage }{Netsight tool}{figure.5}{}}
\@writefile{toc}{\contentsline {section}{Research Question}{\thepage }{section*.8}}
\@writefile{toc}{\contentsline {section}{HiveInsight Implementation}{\thepage }{section*.9}}
\@writefile{lof}{\contentsline {figure}{\numberline {6}{\ignorespaces Fat Tree K = 8}}{\thepage }{figure.6}}
\newlabel{fig:figure6}{{6}{\thepage }{Fat Tree K = 8}{figure.6}{}}
\@writefile{lof}{\contentsline {figure}{\numberline {7}{\ignorespaces HiveInsight}}{\thepage }{figure.7}}
\newlabel{fig:figure7}{{7}{\thepage }{HiveInsight}{figure.7}{}}
\@writefile{lof}{\contentsline {figure}{\numberline {8}{\ignorespaces HiveInsight's zooming feature}}{\thepage }{figure.8}}
\newlabel{fig:figure8}{{8}{\thepage }{HiveInsight's zooming feature}{figure.8}{}}
\@writefile{toc}{\contentsline {section}{Results and Discussion}{\thepage }{section*.10}}
\@writefile{toc}{\contentsline {subsection}{Visualization of Network Topology}{\thepage }{section*.11}}
\@writefile{toc}{\contentsline {subsection}{Zooming}{\thepage }{section*.12}}
\@writefile{lof}{\contentsline {figure}{\numberline {9}{\ignorespaces Viewing information about the anomaly}}{\thepage }{figure.9}}
\newlabel{fig:figure9}{{9}{\thepage }{Viewing information about the anomaly}{figure.9}{}}
\@writefile{lof}{\contentsline {figure}{\numberline {10}{\ignorespaces HiveInsight's filtering feature}}{\thepage }{figure.10}}
\newlabel{fig:figure9}{{10}{\thepage }{HiveInsight's filtering feature}{figure.10}{}}
\@writefile{toc}{\contentsline {subsection}{Additional Information}{\thepage }{section*.13}}
\@writefile{toc}{\contentsline {subsection}{Filtering}{\thepage }{section*.14}}
\@writefile{lof}{\contentsline {figure}{\numberline {11}{\ignorespaces HiveInsight can scale to hundreds of nodes}}{\thepage }{figure.11}}
\newlabel{fig:figure10}{{11}{\thepage }{HiveInsight can scale to hundreds of nodes}{figure.11}{}}
\@writefile{toc}{\contentsline {subsection}{Visual Notifications}{\thepage }{section*.15}}
\@writefile{toc}{\contentsline {subsection}{Time Based Information}{\thepage }{section*.16}}
\@writefile{toc}{\contentsline {subsection}{Interactivity}{\thepage }{section*.17}}
\@writefile{toc}{\contentsline {subsection}{Scalability}{\thepage }{section*.18}}
\bibstyle{SIGCHI-Reference-Format}
\bibdata{sample}
\bibcite{azodolmolky2013software}{1}
\bibcite{ball2004home}{2}
\bibcite{handigol2012debugger}{3}
\bibcite{handigol2014know}{4}
\bibcite{goodall2005user}{5}
\bibcite{goodall20051user}{6}
\bibcite{kuzniar2012soft}{7}
\bibcite{mccormick2014}{8}
\bibcite{shimonishi2012programmable}{9}
\bibcite{watashiba2013openflow}{10}
\bibcite{noack2009modularity}{11}
\bibcite{krzywinski2012hive}{12}
\bibcite{milo2002network}{13}
\bibcite{greenberg1989randomized}{14}
\bibcite{abras2004user}{15}
\bibcite{goodall2005preserving}{16}
\bibcite{bastian2009gephi}{17}
\@writefile{toc}{\contentsline {section}{Conclusion and Future Work}{\thepage }{section*.19}}
\@writefile{toc}{\contentsline {section}{Acknowledgements}{\thepage }{section*.20}}
\@writefile{toc}{\contentsline {section}{{REFERENCES} }{\thepage }{section*.21}}
