This is BibTeX, Version 0.99d (TeX Live 2015)
Capacity: max_strings=35307, hash_size=35307, hash_prime=30011
The top-level auxiliary file: /Users/rachelfranz/csc2229-networks-project/Networks Paper/.texpadtmp/proceedings.aux
The style file: ../SIGCHI-Reference-Format.bst
I found no \citation commands---while reading file /Users/rachelfranz/csc2229-networks-project/Networks Paper/.texpadtmp/proceedings.aux
Reallocated singl_function (elt_size=4) to 100 items from 50.
Reallocated wiz_functions (elt_size=4) to 6000 items from 3000.
Database file #1: ../sample.bib
Reallocated singl_function (elt_size=4) to 100 items from 50.
You've used 0 entries,
            5283 wiz_defined-function locations,
            1217 strings with 14252 characters,
and the built_in function-call counts, 83 in all, are:
= -- 0
> -- 0
< -- 0
+ -- 0
- -- 0
* -- 0
:= -- 8
add.period$ -- 0
call.type$ -- 0
change.case$ -- 0
chr.to.int$ -- 0
cite$ -- 0
duplicate$ -- 1
empty$ -- 1
format.name$ -- 0
if$ -- 2
int.to.chr$ -- 1
int.to.str$ -- 0
missing$ -- 0
newline$ -- 34
num.names$ -- 0
pop$ -- 1
preamble$ -- 1
purify$ -- 0
quote$ -- 0
skip$ -- 1
stack$ -- 0
substring$ -- 0
swap$ -- 0
text.length$ -- 0
text.prefix$ -- 0
top$ -- 0
type$ -- 0
warning$ -- 0
while$ -- 0
width$ -- 0
write$ -- 33
(There was 1 error message)
